spotiverseR • spotiverseR
…
Filtering playlist names with substrings

This function takes in a character string and subsets all the playlist names in the playlist_name column that contains that substring. Note that substrings are case sensative.

data("christmas_playlists")
filter_by_ss(data = christmas_playlists, col = playlist_name, substring = "Jazz")
#> Loading required package: stringr
#> # A tibble: 40 x 26
#>    playlist_name playlist_uri playlist_tracks… playlist_num_tr… snapshot_id
#>    <chr>         <chr>        <chr>                       <int> <chr>      
#>  1 Christmas Ja… 37i9dQZF1DX… https://api.spo…               40 MTU0MTQ0Mz…
#>  2 Christmas Ja… 37i9dQZF1DX… https://api.spo…               40 MTU0MTQ0Mz…
#>  3 Christmas Ja… 37i9dQZF1DX… https://api.spo…               40 MTU0MTQ0Mz…
#>  4 Christmas Ja… 37i9dQZF1DX… https://api.spo…               40 MTU0MTQ0Mz…
#>  5 Christmas Ja… 37i9dQZF1DX… https://api.spo…               40 MTU0MTQ0Mz…
#>  6 Christmas Ja… 37i9dQZF1DX… https://api.spo…               40 MTU0MTQ0Mz…
#>  7 Christmas Ja… 37i9dQZF1DX… https://api.spo…               40 MTU0MTQ0Mz…
#>  8 Christmas Ja… 37i9dQZF1DX… https://api.spo…               40 MTU0MTQ0Mz…
#>  9 Christmas Ja… 37i9dQZF1DX… https://api.spo…               40 MTU0MTQ0Mz…
#> 10 Christmas Ja… 37i9dQZF1DX… https://api.spo…               40 MTU0MTQ0Mz…
#> # ... with 30 more rows, and 21 more variables: playlist_img <chr>,
#> #   track_name <chr>, track_uri <chr>, artist_name <chr>,
#> #   album_name <chr>, album_img <chr>, track_popularity <int>,
#> #   danceability <dbl>, energy <dbl>, key <chr>, loudness <dbl>,
#> #   mode <chr>, speechiness <dbl>, acousticness <dbl>,
#> #   instrumentalness <dbl>, liveness <dbl>, valence <dbl>, tempo <dbl>,
#> #   duration_ms <dbl>, time_signature <dbl>, key_mode <chr>
…
